…
## Usage

``` r
library(annotables)
```

Look at the human genes table (note the description column gets cut off
because the table becomes too wide to print nicely):

``` r
grch38
```

    ## # A tibble: 91,673 × 9
    ##    ensgene         entrez symbol chr     start    end strand biotype description
    ##    <chr>            <int> <chr>  <chr>   <int>  <int>  <int> <chr>   <chr>      
    ##  1 ENSG00000000003   7105 TSPAN6 X      1.01e8 1.01e8     -1 protei… tetraspani…
    ##  2 ENSG00000000005  64102 TNMD   X      1.01e8 1.01e8      1 protei… tenomodulin
    ##  3 ENSG00000000419   8813 DPM1   20     5.09e7 5.10e7     -1 protei… dolichyl-p…
    ##  4 ENSG00000000457  57147 SCYL3  1      1.70e8 1.70e8     -1 protei… SCY1 like …
    ##  5 ENSG00000000460  55732 FIRRM  1      1.70e8 1.70e8      1 protei… FIGNL1 int…
    ##  6 ENSG00000000938   2268 FGR    1      2.76e7 2.76e7     -1 protei… FGR proto-…
    ##  7 ENSG00000000971   3075 CFH    1      1.97e8 1.97e8      1 protei… complement…
    ##  8 ENSG00000001036   2519 FUCA2  6      1.43e8 1.44e8     -1 protei… alpha-L-fu…
    ##  9 ENSG00000001084   2729 GCLC   6      5.35e7 5.36e7     -1 protei… glutamate-…
    ## 10 ENSG00000001167   4800 NFYA   6      4.11e7 4.11e7      1 protei… nuclear tr…
    ## # ℹ 91,663 more rows

Look at the human genes-to-transcripts table:

``` r
grch38_tx2gene
```

    ## # A tibble: 412,044 × 2
    ##    enstxp          ensgene        
    ##    <chr>           <chr>          
    ##  1 ENST00000373020 ENSG00000000003
    ##  2 ENST00000612152 ENSG00000000003
    ##  3 ENST00000496771 ENSG00000000003
    ##  4 ENST00000494424 ENSG00000000003
    ##  5 ENST00000373031 ENSG00000000005
    ##  6 ENST00000485971 ENSG00000000005
    ##  7 ENST00000466152 ENSG00000000419
    ##  8 ENST00000371582 ENSG00000000419
    ##  9 ENST00000683048 ENSG00000000419
    ## 10 ENST00000371588 ENSG00000000419
    ## # ℹ 412,034 more rows
…
